Labs/Lab3/filter.csv

#Digilent WaveForms Oscilloscope Acquisition,,,,,,,,
#Device Name: Discovery2,,,,,,,,
#Serial Number: SN:210321AE0290,,,,,,,,
#Date Time: 2024-09-22 20:45:31.093,,,,,,,,
#Sample rate: 800000Hz,,,,,,,,
#Samples: 8192,,,,,,,,
#Trigger: Source: Channel 1 Type: Edge Condition: Rising Level: 0 V Hyst.: Auto HoldOff: 0 s,,,,,,,,
#Channel 1: Range: 500 mV/div Offset: 0 V Sample Mode: Average,,,,,,,,
#Channel 2: Range: 500 mV/div Offset: 0 V Sample Mode: Average,,,,,,,,
#Wavegen Channel 1: Running,,,,,,,,
#Mode: Custom,,,,,,,,
#Type: Custom1,,,,,,,,
#Frequency: 200 Hz,,,,,,,,
#Period: 5 ms,,,,,,,,
#Amplitude: 1 V,,,,,,,,
#Offset: 0 V,,,,,,,,
#Phase: 0 °,,,,,,,,
,,,,,,,,
Time (s),Channel 1 (V),Channel 2 (V),,,,,Average Noise%Err,
-0.005119583,-0.136139445,0.002424576,,-0.149707912,9.063292759,,9.421974887,
-0.005118333,-0.134794084,0.003429376,,-0.148154634,9.017976497,,,
-0.005117083,-0.133112382,0.003764309,,-0.14660099,9.200898724,,,
-0.005115833,-0.13176702,0.003094442,,-0.145046985,9.155629874,,,
-0.005114583,-0.130085318,0.002424576,,-0.143492622,9.343549439,,,
-0.005113333,-0.128739956,0.003094442,,-0.141937905,9.298396085,,,
-0.005112083,-0.128403616,0.002089643,,-0.140382837,8.533252247,,,
-0.005110833,-0.126721914,0.002759509,,-0.138827424,8.719826123,,,
-0.005109583,-0.125712893,0.002759509,,-0.137271667,8.420364617,,,
-0.005108333,-0.12403119,0.002424576,,-0.135715572,8.609462999,,,
-0.005107083,-0.122349488,0.002424576,,-0.134159143,8.802720397,,,
-0.005105833,-0.121340467,0.002759509,,-0.132602382,8.492995695,,,
-0.005104583,-0.119658765,0.002759509,,-0.131045294,8.689002299,,,
-0.005103333,-0.118313403,0.003094442,,-0.129487882,8.629748696,,,
-0.005102083,-0.116631701,0.003429376,,-0.127930151,8.831733472,,,
-0.005100833,-0.114949999,0.003094442,,-0.126372105,9.038470578,,,
-0.005099583,-0.113604638,0.002759509,,-0.124813746,8.980668492,,,
-0.005098333,-0.111922935,0.002759509,,-0.12325508,9.194058798,,,
-0.005097083,-0.110577574,0.002089643,,-0.12169611,9.136311564,,,
-0.005095833,-0.109568553,0.002424576,,-0.120136839,8.796873921,,,
-0.005094583,-0.108223191,0.003094442,,-0.118577272,8.731926955,,,
-0.005093333,-0.106541489,0.003764309,,-0.117017412,8.952448114,,,
-0.005092083,-0.105196127,0.002759509,,-0.115457263,8.88738913,,,
-0.005090833,-0.103850766,0.003094442,,-0.11389683,8.820319749,,,
-0.005089583,-0.102169063,0.003094442,,-0.112336116,9.050564225,,,
-0.005088333,-0.100823702,0.002089643,,-0.110775124,8.983445052,,,
-0.005087083,-0.099814681,0.002424576,,-0.109213859,8.606214303,,,
-0.005085833,-0.098805659,0.002424576,,-0.107652325,8.217811996,,,
-0.005084583,-0.097460298,0.002424576,,-0.106090525,8.134776752,,,
-0.005083333,-0.095778596,0.002424576,,-0.104528463,8.370799135,,,
-0.005082083,-0.094769574,0.003094442,,-0.102966144,7.960450885,,,
-0.005080833,-0.093424213,0.003429376,,-0.10140357,7.868911563,,,
-0.005079583,-0.091742511,0.003094442,,-0.099840746,8.111152733,,,
-0.005078333,-0.090060809,0.003764309,,-0.098277676,8.360868477,,,
-0.005077083,-0.088379106,0.002759509,,-0.096714363,8.618426752,,,
-0.005075833,-0.087370085,0.002759509,,-0.095150812,8.177256988,,,
-0.005074583,-0.086361064,0.002759509,,-0.093587025,7.721114589,,,
-0.005073333,-0.085352043,0.002424576,,-0.092023008,7.249236641,,,
-0.005072083,-0.083334,0.003094442,,-0.090458764,7.876256166,,,
-0.005070833,-0.081315958,0.003429376,,-0.088894297,8.525112878,,,
-0.005069583,-0.079297915,0.003429376,,-0.08732961,9.196989372,,,
-0.005068333,-0.077616213,0.002424576,,-0.085764708,9.500988321,,,
-0.005067083,-0.076270851,0.003094442,,-0.084199594,9.416604507,,,
-0.005065833,-0.07526183,0.003764309,,-0.082634273,8.921773339,,,
-0.005064583,-0.072907447,0.002759509,,-0.081068747,10.06713472,,,
-0.005063333,-0.071562086,0.002759509,,-0.079503022,9.988219366,,,
-0.005062083,-0.070553064,0.002759509,,-0.0779371,9.474352832,,,
-0.005060833,-0.069207703,0.002089643,,-0.076370986,9.379587668,,,
-0.005059583,-0.067862341,0.002089643,,-0.074804684,9.280625973,,,
-0.005058333,-0.06718966,0.002424576,,-0.073238197,8.258718926,,,
-0.005057083,-0.065507958,0.003094442,,-0.07167153,8.599748518,,,
-0.005055833,-0.063489916,0.003429376,,-0.070104685,9.43555957,,,
-0.005054583,-0.062144554,0.002759509,,-0.068537668,9.32788313,,,
-0.005053333,-0.061135533,0.002424576,,-0.066970481,8.712716606,,,
-0.005052083,-0.059790171,0.002424576,,-0.065403129,8.582094083,,,
-0.005050833,-0.057772129,0.003764309,,-0.063835616,9.498596198,,,
-0.005049583,-0.056090427,0.003429376,,-0.062267945,9.920864991,,,
-0.005048333,-0.054408725,0.002089643,,-0.060700121,10.36471829,,,
-0.005047083,-0.052727022,0.002759509,,-0.059132147,10.83188225,,,
-0.005045833,-0.051381661,0.002089643,,-0.057564027,10.7399821,,,
-0.005044583,-0.05037264,0.002424576,,-0.055995765,10.04205481,,,
-0.005043333,-0.049027278,0.002759509,,-0.054427365,9.921639417,,,
-0.005042083,-0.047345576,0.003094442,,-0.05285883,10.43014844,,,
-0.005040833,-0.046000214,0.003429376,,-0.051290165,10.31377297,,,
-0.005039583,-0.044318512,0.003094442,,-0.049721374,10.86627621,,,
-0.005038333,-0.04297315,0.003094442,,-0.04815246,10.75606389,,,
-0.005037083,-0.040955108,0.002424576,,-0.046583427,12.08223451,,,
-0.005035833,-0.039946087,0.002089643,,-0.045014279,11.25907676,,,
-0.005034583,-0.038937065,0.002089643,,-0.04344502,10.37622839,,,
-0.005033333,-0.037928044,0.002424576,,-0.041875654,9.426980157,,,
-0.005032083,-0.036246342,0.002759509,,-0.040306184,10.07250434,,,
-0.005030833,-0.03490098,0.002424576,,-0.038736615,9.901832792,,,
-0.005029583,-0.033555619,0.003094442,,-0.037166951,9.716514114,,,
-0.005028333,-0.032210257,0.003764309,,-0.035597195,9.514619051,,,
-0.005027083,-0.030192215,0.003094442,,-0.034027351,11.27074495,,,
-0.005025833,-0.028846853,0.002759509,,-0.032457422,11.12401804,,,
-0.005024583,-0.027837832,0.002424576,,-0.030887414,9.873220984,,,
-0.005023333,-0.02615613,0.003429376,,-0.02931733,10.78270236,,,
-0.005022083,-0.025483449,0.002424576,,-0.027747173,8.158397206,,,
-0.005020833,-0.024138087,0.002424576,,-0.026176948,7.788765688,,,
-0.005019583,-0.022792725,0.002089643,,-0.024606659,7.371716553,,,
-0.005018333,-0.021447364,0.002759509,,-0.023036308,6.897565165,,,
-0.005017083,-0.020102002,0.003094442,,-0.021465901,6.353792355,,,
-0.005015833,-0.01875664,0.002759509,,-0.019895441,5.723925534,,,
-0.005014583,-0.017747619,0.003094442,,-0.018324931,3.150419129,,,
-0.005013333,-0.016402258,0.003094442,,-0.016754377,2.101655468,,,
-0.005012083,-0.014720556,0.002424576,,-0.015183781,3.05079141,,,
-0.005010833,-0.013711534,0.002759509,,-0.013613148,0.722732183,,,
-0.005009583,-0.012029832,0.003429376,,-0.012042481,0.10503281,,,
-0.005008333,-0.011020811,0.003094442,,-0.010471784,5.242915883,,,
-0.005007083,-0.009339109,0.002089643,,-0.008901062,4.921291937,,,
-0.005005833,-0.007657407,0.003094442,,-0.007330317,4.462147797,,,
-0.005004583,-0.006312045,0.003094442,,-0.005759555,9.592589681,,,
-0.005003333,-0.004630343,0.003094442,,-0.004188778,10.54162121,,,
-0.005002083,-0.002948641,0.003429376,,-0.002617991,12.62991782,,,
-0.005000833,-0.001603279,0.003429376,,-0.001047197,53.10192578,,,
-0.004999583,7.842275150796163e-05,0.003429376,,0.000523599,85.02235706,,,
-0.004998333,0.001423784,0.002424576,,0.002094394,32.01925218,,,
-0.004997083,0.002769146,0.00175471,,0.003665183,24.4472676,,,
-0.004995833,0.004114508,0.002089643,,0.005235964,21.41833164,,,
-0.004994583,0.005459869,0.002089643,,0.006806732,19.78720804,,,
-0.004993333,0.006468891,0.003429376,,0.008377482,22.78240265,,,
-0.004992083,0.008486933,0.002759509,,0.009948213,14.68886484,,,
-0.004990833,0.009832295,0.002759509,,0.011518918,14.64220406,,,
-0.004989583,0.011177656,0.003094442,,0.013089596,14.6065561,,,
-0.004988333,0.012186678,0.003429376,,0.014660241,16.87259379,,,
-0.004987083,0.01420472,0.002424576,,0.016230849,12.48319843,,,
-0.004985833,0.015550082,0.003429376,,0.017801418,12.64694867,,,
-0.004984583,0.016222763,0.002424576,,0.019371943,16.25639829,,,
-0.004983333,0.018240805,0.002424576,,0.02094242,12.90020317,,,
-0.004982083,0.019922507,0.002759509,,0.022512845,11.50604446,,,
-0.004980833,0.021267869,0.002759509,,0.024083215,11.6900759,,,
-0.004979583,0.022613231,0.003429376,,0.025653525,11.85137239,,,
-0.004978333,0.023958592,0.002424576,,0.027223772,11.99385663,,,
-0.004977083,0.025303954,0.003764309,,0.028793952,12.12059545,,,
-0.004975833,0.027321996,0.004099242,,0.030364061,10.01863625,,,
-0.004974583,0.028667358,0.003429376,,0.031934095,10.22962167,,,
-0.004973333,0.03034906,0.003429376,,0.03350405,9.416742624,,,
-0.004972083,0.031694422,0.002759509,,0.035073923,9.63536648,,,
-0.004970833,0.032703443,0.002759509,,0.036643709,10.75291182,,,
-0.004969583,0.034385145,0.003094442,,0.038213404,10.01810544,,,
-0.004968333,0.036066847,0.003094442,,0.039783005,9.34106973,,,
-0.004967083,0.037412209,0.002759509,,0.041352509,9.528562666,,,
-0.004965833,0.039093911,0.002759509,,0.04292191,8.918518975,,,
-0.004964583,0.040775613,0.002424576,,0.044491205,8.351294888,,,
-0.004963333,0.042120975,0.003094442,,0.04606039,8.552718271,,,
-0.004962083,0.043802677,0.003429376,,0.047629462,8.03449143,,,
-0.004960833,0.045148038,0.003094442,,0.049198416,8.232739749,,,
-0.004959583,0.0464934,0.003094442,,0.050767249,8.418515443,,,
-0.004958333,0.047838762,0.003764309,,0.052335956,8.59293469,,,
-0.004957083,0.049856804,0.003764309,,0.053904535,7.509072231,,,
-0.004955833,0.051538506,0.003094442,,0.05547298,7.092594904,,,
-0.004954583,0.052547528,0.002424576,,0.057041289,7.878084698,,,
-0.004953333,0.053892889,0.003094442,,0.058609456,8.047450755,,,
-0.004952083,0.055910932,0.004099242,,0.060177479,7.08994102,,,
-0.004950833,0.058265315,0.003764309,,0.061745354,5.636115656,,,
-0.004949583,0.059274336,0.003094442,,0.063313076,6.378999217,,,
-0.004948333,0.060283357,0.002759509,,0.064880643,7.085758296,,,
-0.004947083,0.060956038,0.003094442,,0.066448049,8.265119623,,,
-0.004945833,0.06263774,0.002424576,,0.068015291,7.906384935,,,
-0.004944583,0.063646761,0.00175471,,0.069582365,8.530327623,,,
-0.004943333,0.064655782,0.002424576,,0.071149267,9.126566215,,,
-0.004942083,0.066337485,0.003094442,,0.072715994,8.771811459,,,
-0.004940833,0.067682846,0.003094442,,0.074282542,8.884585364,,,
-0.004939583,0.069028208,0.003094442,,0.075848906,8.992481008,,,
-0.004938333,0.07070991,0.003429376,,0.077415084,8.661327056,,,
-0.004937083,0.072055272,0.003764309,,0.07898107,8.768934228,,,
-0.004935833,0.073736974,0.003764309,,0.080546861,8.454565647,,,
-0.004934583,0.075418676,0.003764309,,0.082112453,8.151964038,,,
-0.004933333,0.076764037,0.003764309,,0.083677843,8.262409319,,,
-0.004932083,0.07878208,0.003764309,,0.085243027,7.579443298,,,
-0.004930833,0.080127442,0.003764309,,0.086808,7.6957865,,,
-0.004929583,0.081809144,0.003094442,,0.088372759,7.427192809,,,
-0.004928333,0.083827186,0.003764309,,0.0899373,6.793748082,,,
-0.004927083,0.084499867,0.002424576,,0.091501619,7.652052291,,,
-0.004925833,0.086517909,0.003429376,,0.093065712,7.035676491,,,
-0.004924583,0.088199612,0.003764309,,0.094629575,6.794877679,,,
-0.004923333,0.089881314,0.003429376,,0.096193205,6.561681632,,,
-0.004922083,0.091899356,0.003094442,,0.097756598,5.991659119,,,
-0.004920833,0.093244718,0.003429376,,0.09931975,6.116640456,,,
-0.004919583,0.09526276,0.003764309,,0.100882656,5.570725608,,,
-0.004918333,0.096608122,0.003094442,,0.102445314,5.697861261,,,
-0.004917083,0.097953484,0.002759509,,0.104007719,5.820947753,,,
-0.004915833,0.099298845,0.003094442,,0.105569867,5.940162314,,,
-0.004914583,0.1003078664683576,0.003094442,,0.107131754,6.36962205,,,
-0.004913333,0.1019895685441443,0.003094442,,0.108693378,6.167633425,,,
-0.004912083,0.1033349302047726,0.003094442,,0.110254733,6.276195485,,,
-0.004910833,0.1050166322805586,0.002759509,,0.111815816,6.080699336,,,
-0.004909583,0.1056893131108727,0.002759509,,0.113376623,6.780330661,,,
-0.004908333,0.1070346747715019,0.002759509,,0.11493715,6.875475586,,,
-0.004907083,0.1080436960169731,0.002759509,,0.116497394,7.256555716,,,
-0.004905833,0.1093890576776024,0.003429376,,0.118057351,7.342442481,,,
-0.004904583,0.1114071001685464,0.003764309,,0.119617016,6.863501513,,,
-0.004903333,0.1130888022443318,0.00175471,,0.121176386,6.674224132,,,
-0.004902083,0.1144341639049606,0.002424576,,0.122735457,6.76356541,,,
-0.004900833,0.1154431851504322,0.003094442,,0.124294225,7.121038649,,,
-0.004899583,0.1167885468110611,0.002424576,,0.125852686,7.202182052,,,
-0.004898333,0.1181339084716893,0.002759509,,0.127410837,7.281114427,,,
-0.004897083,0.1191429297171616,0.002759509,,0.128968674,7.618706055,,,
-0.004895833,0.1204882913777898,0.003094442,,0.130526192,7.690334539,,,
-0.004894583,0.1221699934535765,0.003429376,,0.132083388,7.505406361,,,
-0.004893333,0.123515355,0.003094442,,0.133640259,7.57623776,,,
-0.004892083,0.1248607167748342,0.003429376,,0.135196799,7.64521258,,,
-0.004890833,0.1262060784354631,0.003094442,,0.136753007,7.712392125,,,
-0.004889583,0.1282241209264064,0.003764309,,0.138308876,7.291473632,,,
-0.004888333,0.1295694825870352,0.003764309,,0.139864405,7.360644739,,,
-0.004887083,0.1312511846628205,0.003094442,,0.141419588,7.190236708,,,
-0.004885833,0.1329328867386073,0.002424576,,0.142974422,7.023308929,,,
-0.004884583,0.1339419079840799,0.002759509,,0.144528904,7.325175368,,,
-0.004883333,0.1359599504750223,0.002759509,,0.146083029,6.9296743,,,
-0.004882083,0.1373053121356516,0.002089643,,0.147636793,6.997903909,,,
-0.004880833,0.1383143333811228,0.002089643,,0.149190193,7.289929476,,,
-0.004879583,0.1393233546265944,0.002089643,,0.150743225,7.575710746,,,
-0.004878333,0.140332376,0.002089643,,0.152295885,7.855438502,,,
-0.004877083,0.1416777375326949,0.003429376,,0.15384817,7.910677358,,,
-0.004875833,0.1426867587781661,0.003094442,,0.155400075,8.181023011,,,
-0.004874583,0.1447048012691098,0.003764309,,0.156951596,7.802911868,,,
-0.004873333,0.1463865033448965,0.003429376,,0.15850273,7.644175405,,,
-0.004872083,0.1477318650055247,0.003429376,,0.160053473,7.698432153,,,
-0.004870833,0.1497499074964686,0.002759509,,0.161603821,7.335169135,,,
-0.004869583,0.1510952691570969,0.002759509,,0.16315377,7.390881155,,,
-0.004868333,0.1524406308177257,0.002759509,,0.164703317,7.445318395,,,
-0.004867083,0.154122333,0.002089643,,0.166252458,7.296207735,,,
-0.004865833,0.1554676945541407,0.002089643,,0.167801188,7.350063093,,,
-0.004864583,0.1561403753844548,0.002089643,,0.169349504,7.799921561,,,
-0.004863333,0.1581584178753984,0.002759509,,0.170897402,7.454170801,,,
-0.004862083,0.1598401199511849,0.002759509,,0.172444879,7.309442221,,,
-0.004860833,0.1608491411966561,0.002089643,,0.17399193,7.553677146,,,
-0.004859583,0.1611854816118133,0.003094442,,0.175538552,8.176591349,,,
-0.004858333,0.1635398645179138,0.003429376,,0.17708474,7.648810269,,,
-0.004857083,0.1655579070088571,0.002759509,,0.178630492,7.318227085,,,
-0.004855833,0.1669032686694853,0.003094442,,0.180175803,7.366435533,,,
-0.004854583,0.1679122899149576,0.003094442,,0.181720669,7.598684066,,,
-0.004853333,0.1699303324058999,0.003429376,,0.183265088,7.276211355,,,
-0.004852083,0.1712756940665297,0.002089643,,0.184809053,7.322887627,,,
-0.004850833,0.1726210557271592,0.002089643,,0.186352563,7.368563792,,,
-0.004849583,0.1739664173877874,0.002759509,,0.187895613,7.413262954,,,
-0.004848333,0.1753117790484163,0.002424576,,0.1894382,7.457007451,,,
-0.004847083,0.1763208002938879,0.002089643,,0.190980319,7.675931497,,,
-0.004845833,0.178002502,0.002089643,,0.192521967,7.541718183,,,
-0.004844583,0.1793478640303022,0.002424576,,0.194063139,7.582725557,,,
-0.004843333,0.1810295661060889,0.004099242,,0.195603833,7.45091079,,,
-0.004842083,0.1820385873515613,0.003429376,,0.197144045,7.662142271,,,
-0.004840833,0.1837202894273466,0.003764309,,0.198683769,7.531304649,,,
-0.004839583,0.1854019915031333,0.003094442,,0.200223004,7.402252598,,,
-0.004838333,0.1867473531637615,0.003094442,,0.201761745,7.441644346,,,
-0.004837083,0.1877563744092332,0.002424576,,0.203299987,7.645653691,,,
-0.004835833,0.1894380764850192,0.002424576,,0.204837729,7.517976389,,,
-0.004834583,0.1904470977304909,0.003094442,,0.206374964,7.717925774,,,
-0.004833333,0.191456119,0.002089643,,0.207911691,7.914692905,,,
-0.004832083,0.1924651402214342,0.002424576,,0.209447904,8.108347599,,,
-0.004830833,0.1938105018820641,0.003094442,,0.210983601,8.139542177,,,
-0.004829583,0.1961648847881635,0.003094442,,0.212518777,7.695269404,,,
-0.004828333,0.1971739060336358,0.002424576,,0.214053429,7.885658762,,,
-0.004827083,0.198519268,0.003094442,,0.215587553,7.917101307,,,
-0.004825833,0.1998646293548929,0.002759509,,0.217121144,7.947873998,,,
-0.004824583,0.2012099910155211,0.002759509,,0.2186542,7.977989562,,,
-0.004823333,0.203228034,0.002759509,,0.220186717,7.701955636,,,
-0.004822083,0.2042370547519362,0.003094442,,0.22171869,7.884601505,,,
-0.004820833,0.2059187568277227,0.003429376,,0.223250116,7.763202767,,,
-0.004819583,0.2076004589035093,0.003094442,,0.224780991,7.643231868,,,
-0.004818333,0.2086094801489804,0.002759509,,0.226311312,7.821894359,,,
-0.004817083,0.2099548418096093,0.002424576,,0.227841074,7.850310736,,,
-0.004815833,0.2116365438853954,0.003094442,,0.229370274,7.731485843,,,
-0.004814583,0.2129819055460242,0.002759509,,0.230898908,7.759674071,,,
-0.004813333,0.2139909267914954,0.00175471,,0.232426973,7.931973489,,,
-0.004812083,0.2153362884521247,0.002089643,,0.233954464,7.958033713,,,
-0.004810833,0.2166816501127529,0.002424576,,0.235481377,7.98353028,,,
-0.004809583,0.2183633521885396,0.002424576,,0.23700771,7.866561639,,,
-0.004808333,0.2197087138491688,0.002089643,,0.238533458,7.891867213,,,
-0.004807083,0.2203813946794829,0.002424576,,0.240058617,8.196840594,,,
-0.004805833,0.222063097,0.002424576,,0.241583184,8.080068615,,,
-0.004804583,0.2223994371704262,0.002424576,,0.243107155,8.517938305,,,
-0.004803333,0.223744799,0.002759509,,0.244630526,8.537661741,,,
-0.004802083,0.2247538200765262,0.002424576,,0.246153293,8.693555422,,,
-0.004800833,0.2264355221523127,0.00175471,,0.247675453,8.57571094,,,
-0.004799583,0.2281172242280993,0.003094442,,0.249197002,8.459081615,,,
-0.004798333,0.2291262454735704,0.002759509,,0.250717936,8.611944936,,,
-0.004797083,0.2301352667190429,0.002424576,,0.252238252,8.762741045,,,
-0.004795833,0.2318169687948282,0.002424576,,0.253757945,8.646419258,,,
-0.004794583,0.23316233,0.002424576,,0.255277012,8.663013149,,,
-0.004793333,0.2345076921160859,0.002424576,,0.256795449,8.679186727,,,
-0.004792083,0.2358530537767147,0.002089643,,0.258313252,8.694946198,,,
-0.004790833,0.237534756,0.003094442,,0.259830418,8.580851491,,,
-0.004789583,0.2385437770979724,0.003429376,,0.261346943,8.725246901,,,
-0.004788333,0.240225479,0.002759509,,0.262862823,8.611846986,,,
-0.004787083,0.2412345004192301,0.002089643,,0.264378055,8.753961991,,,
-0.004785833,0.2429162024950171,0.002759509,,0.265892634,8.641244113,,,
-0.004784583,0.2449342449859595,0.003094442,,0.267406557,8.403800002,,,
-0.004783333,0.2459432662314311,0.002759509,,0.268919821,8.5440167,,,
-0.004782083,0.2472886278920594,0.002759509,,0.27043242,8.558068784,,,
-0.004780833,0.24897033,0.003764309,,0.271944353,8.448060346,,,
-0.004779583,0.2506520320436314,0.002424576,,0.273455615,8.339043461,,,
-0.004778333,0.251997394,0.003094442,,0.274966201,8.353320377,,,
-0.004777083,0.2530064149497334,0.002759509,,0.27647611,8.488869038,,,
-0.004775833,0.2546881170255186,0.003429376,,0.277985336,8.380736681,,,
-0.004774583,0.2567061595164619,0.003429376,,0.279493876,8.153207917,,,
-0.004773333,0.2587242020074052,0.002424576,,0.281001727,7.927896135,,,
-0.004772083,0.2600695636680341,0.002424576,,0.282508884,7.942872591,,,
-0.004770833,0.2617512657438194,0.003094442,,0.284015345,7.839040874,,,
-0.004769583,0.2630966274044491,0.003094442,,0.285521104,7.853877166,,,
-0.004768333,0.2644419890650773,0.003094442,,0.287026159,7.868331661,,,
-0.004767083,0.266123691,0.003764309,,0.288530506,7.765839113,,,
